[
    {
      "id": 5,
      "owner_id": 14,
      "name": "Chicken Rice",
      "description": "Hainanese style chicken breast served with fragrant rice and soup",
      "created_at": "2016-03-02T12:39:49+0000",
      "updated_at": "2016-03-02T12:39:49+0000",
      "deleted_at": null,
      "listing_id": 5,
      "ingredients": null,
      "price_per_serving": "9.55",
      "servings_total": 5,
      "servings_available": 5,
      "delivery_address_center": null,
      "pickup_address": null,
      "delivery_radius": null,
      "start_pickup_time": null,
      "end_pickup_time": null,
      "start_delivery_time": null,
      "end_delivery_time": null,
      "cutoff_time": null,
      "pickup_delivery_options": "P",
      "calories": 0,
      "kilojoules": 0,
      "chef": {
        "id": 14,
        "username": "alanthepro",
        "first_name": "Alan",
        "last_name": "Yeung",
        "ratings": [
          {
            "avg_value_score": "5.0000",
            "avg_taste_score": "5.0000",
            "avg_service_score": "4.0000"
          }
        ]
      }
    },
    {
      "id": 6,
      "owner_id": 14,
      "name": "Hot doges",
      "description": "A tangy sausage",
      "created_at": "2016-03-02T12:39:49+0000",
      "updated_at": "2016-03-02T12:39:49+0000",
      "deleted_at": null,
      "listing_id": 6,
      "ingredients": null,
      "price_per_serving": "13.15",
      "servings_total": 4,
      "servings_available": 4,
      "delivery_address_center": null,
      "pickup_address": null,
      "delivery_radius": null,
      "start_pickup_time": null,
      "end_pickup_time": null,
      "start_delivery_time": null,
      "end_delivery_time": null,
      "cutoff_time": null,
      "pickup_delivery_options": "P",
      "calories": 0,
      "kilojoules": 0,
      "chef": {
        "id": 14,
        "username": "alanthepro",
        "first_name": "Alan",
        "last_name": "Yeung",
        "ratings": [
          {
            "avg_value_score": "5.0000",
            "avg_taste_score": "5.0000",
            "avg_service_score": "4.0000"
          }
        ]
      }
    },
    {
      "id": 3,
      "owner_id": 14,
      "name": "Curry Chicken",
      "description": "Aspiring chef!",
      "created_at": "2016-03-02T12:39:49+0000",
      "updated_at": "2016-03-02T12:39:49+0000",
      "deleted_at": null,
      "listing_id": 3,
      "ingredients": null,
      "price_per_serving": "0.00",
      "servings_total": 5,
      "servings_available": 5,
      "delivery_address_center": null,
      "pickup_address": null,
      "delivery_radius": null,
      "start_pickup_time": null,
      "end_pickup_time": null,
      "start_delivery_time": null,
      "end_delivery_time": null,
      "cutoff_time": null,
      "pickup_delivery_options": "P",
      "calories": 0,
      "kilojoules": 0,
      "chef": {
        "id": 14,
        "username": "alanthepro",
        "first_name": "Alan",
        "last_name": "Yeung",
        "ratings": [
          {
            "avg_value_score": "5.0000",
            "avg_taste_score": "5.0000",
            "avg_service_score": "4.0000"
          }
        ]
      }
    },
    {
      "id": 2,
      "owner_id": 11,
      "name": "Fried Rice",
      "description": "I need a dollar!",
      "created_at": "2016-03-02T12:39:49+0000",
      "updated_at": "2016-03-02T12:39:49+0000",
      "deleted_at": null,
      "listing_id": 2,
      "ingredients": null,
      "price_per_serving": "4.99",
      "servings_total": 10,
      "servings_available": 10,
      "delivery_address_center": null,
      "pickup_address": null,
      "delivery_radius": null,
      "start_pickup_time": null,
      "end_pickup_time": null,
      "start_delivery_time": null,
      "end_delivery_time": null,
      "cutoff_time": null,
      "pickup_delivery_options": "P",
      "calories": 0,
      "kilojoules": 0,
      "chef": {
        "id": 11,
        "username": "wally1988",
        "first_name": "Wally",
        "last_name": "Smith",
        "ratings": [
          {
            "avg_value_score": "5.0000",
            "avg_taste_score": "5.0000",
            "avg_service_score": "4.0000"
          }
        ]
      }
    },
    {
      "id": 4,
      "owner_id": 10,
      "name": "Delicious Gourmet Burger",
      "description": "A home-ground beef patty with pickles, chunky tomato sauce and mustard",
      "created_at": "2016-03-02T12:39:49+0000",
      "updated_at": "2016-03-02T12:39:49+0000",
      "deleted_at": null,
      "listing_id": 4,
      "ingredients": null,
      "price_per_serving": "8.50",
      "servings_total": 3,
      "servings_available": 3,
      "delivery_address_center": null,
      "pickup_address": null,
      "delivery_radius": null,
      "start_pickup_time": null,
      "end_pickup_time": null,
      "start_delivery_time": null,
      "end_delivery_time": null,
      "cutoff_time": null,
      "pickup_delivery_options": "P",
      "calories": 0,
      "kilojoules": 0,
      "chef": {
        "id": 10,
        "username": "AJackson",
        "first_name": "Alex",
        "last_name": "Jackson",
        "ratings": [
          {
            "avg_value_score": "4.6667",
            "avg_taste_score": "4.0000",
            "avg_service_score": "3.3333"
          }
        ]
      }
    },
    {
      "id": 1,
      "owner_id": 10,
      "name": "Tacos",
      "description": "I Live to Cook!",
      "created_at": "2016-03-02T12:39:49+0000",
      "updated_at": "2016-03-02T12:39:49+0000",
      "deleted_at": null,
      "listing_id": 1,
      "ingredients": null,
      "price_per_serving": "3.50",
      "servings_total": 5,
      "servings_available": 5,
      "delivery_address_center": null,
      "pickup_address": null,
      "delivery_radius": null,
      "start_pickup_time": null,
      "end_pickup_time": null,
      "start_delivery_time": null,
      "end_delivery_time": null,
      "cutoff_time": null,
      "pickup_delivery_options": "P",
      "calories": 0,
      "kilojoules": 0,
      "chef": {
        "id": 10,
        "username": "AJackson",
        "first_name": "Alex",
        "last_name": "Jackson",
        "ratings": [
          {
            "avg_value_score": "4.6667",
            "avg_taste_score": "4.0000",
            "avg_service_score": "3.3333"
          }
        ]
      }
    }
]