[
    {
        "username": "HomeBakeryQueen",
        "first_name": "Jacqui",
        "last_name": "Boyton",
        "email": "1112234@test.com",
        "mobile": "0417670145",
        "state": "NSW"
    },
    {
        "username": "ThePro3144",
        "first_name": "Gordon",
        "last_name": "Huynh",
        "email": "2223345@test.com",
        "mobile": "0417670145",
        "state": "NSW"
    }
]